/bitnami/megastack-linux-x64/output/ruby/bin/ruby extconf.rb
creating Makefile

make "DESTDIR=" clean

make "DESTDIR="
compiling context.c
compiling breakpoint.c
compiling threads.c
compiling locker.c
compiling byebug.c
linking shared-object byebug/byebug.so

make "DESTDIR=" install
/bin/install -c -m 0755 byebug.so ./.gem.20170516-116438-1e01vsc/byebug
installing default byebug libraries
