2017-06-27 05:34:21,792 ERROR 9731 [celery.worker.consumer] consumer.py:364 - consumer: Cannot connect to amqp://bn_edx:**@127.0.0.1:5672//: [Errno 111] Connection refused.
Trying again in 26.00 seconds...

2017-06-27 05:34:47,942 ERROR 9731 [celery.worker.consumer] consumer.py:364 - consumer: Cannot connect to amqp://bn_edx:**@127.0.0.1:5672//: [Errno 111] Connection refused.
Trying again in 28.00 seconds...

2017-06-27 05:35:16,088 ERROR 9731 [celery.worker.consumer] consumer.py:364 - consumer: Cannot connect to amqp://bn_edx:**@127.0.0.1:5672//: [Errno 111] Connection refused.
Trying again in 30.00 seconds...

2017-06-27 05:35:46,241 ERROR 9731 [celery.worker.consumer] consumer.py:364 - consumer: Cannot connect to amqp://bn_edx:**@127.0.0.1:5672//: [Errno 111] Connection refused.
Trying again in 32.00 seconds...

2017-06-27 05:36:18,395 ERROR 9731 [celery.worker.consumer] consumer.py:364 - consumer: Cannot connect to amqp://bn_edx:**@127.0.0.1:5672//: [Errno 111] Connection refused.
Trying again in 32.00 seconds...

2017-06-27 05:36:50,554 ERROR 9731 [celery.worker.consumer] consumer.py:364 - consumer: Cannot connect to amqp://bn_edx:**@127.0.0.1:5672//: [Errno 111] Connection refused.
Trying again in 32.00 seconds...

2017-06-27 05:37:22,743 INFO 9731 [celery.worker.consumer] consumer.py:479 - Connected to amqp://bn_edx:**@127.0.0.1:5672//
2017-06-27 05:37:22,905 INFO 9731 [celery.worker.consumer] consumer.py:567 - mingle: searching for neighbors
2017-06-27 05:37:24,068 INFO 9731 [celery.worker.consumer] consumer.py:573 - mingle: sync with 1 nodes
2017-06-27 05:37:24,079 INFO 9731 [celery.worker.consumer] consumer.py:583 - mingle: sync complete
2017-06-27 05:37:24,316 WARNING 9731 [celery.redirected] log.py:282 - celery@edx.lms.core.high_mem.sankalp-ThinkPad-W510 ready.
2017-06-27 05:37:25,792 INFO 9731 [celery.worker.control] control.py:270 - sync with celery@edx.cms.core.high.sankalp-ThinkPad-W510
2017-06-27 05:37:29,990 INFO 9731 [celery.worker.control] control.py:270 - sync with celery@edx.cms.core.default.sankalp-ThinkPad-W510
2017-06-27 05:37:30,028 INFO 9731 [celery.worker.control] control.py:270 - sync with celery@edx.lms.core.low.sankalp-ThinkPad-W510
2017-06-27 05:37:30,145 INFO 9731 [celery.worker.control] control.py:270 - sync with celery@edx.lms.core.default.sankalp-ThinkPad-W510
