2017-06-27 05:34:02,717 ERROR 9763 [celery.worker.consumer] consumer.py:364 - consumer: Cannot connect to amqp://bn_edx:**@127.0.0.1:5672//: [Errno 111] Connection refused.
Trying again in 24.00 seconds...

2017-06-27 05:34:26,883 ERROR 9763 [celery.worker.consumer] consumer.py:364 - consumer: Cannot connect to amqp://bn_edx:**@127.0.0.1:5672//: [Errno 111] Connection refused.
Trying again in 26.00 seconds...

2017-06-27 05:34:53,024 ERROR 9763 [celery.worker.consumer] consumer.py:364 - consumer: Cannot connect to amqp://bn_edx:**@127.0.0.1:5672//: [Errno 111] Connection refused.
Trying again in 28.00 seconds...

2017-06-27 05:35:21,268 INFO 9763 [celery.worker.consumer] consumer.py:479 - Connected to amqp://bn_edx:**@127.0.0.1:5672//
2017-06-27 05:35:21,577 INFO 9763 [celery.worker.consumer] consumer.py:567 - mingle: searching for neighbors
2017-06-27 05:35:23,999 INFO 9763 [celery.worker.consumer] consumer.py:585 - mingle: all alone
2017-06-27 05:35:24,324 WARNING 9763 [celery.redirected] log.py:282 - celery@edx.cms.core.default.sankalp-ThinkPad-W510 ready.
2017-06-27 05:35:37,746 WARNING 9763 [celery.worker.consumer] consumer.py:289 - consumer: Connection to broker lost. Trying to re-establish the connection...
Traceback (most recent call last):
  File "/home/sankalp/edx-ficus.3-1/apps/edx/venvs/edxapp/lib/python2.7/site-packages/celery/worker/consumer.py", line 278, in start
    blueprint.start(self)
  File "/home/sankalp/edx-ficus.3-1/apps/edx/venvs/edxapp/lib/python2.7/site-packages/celery/bootsteps.py", line 123, in start
    step.start(parent)
  File "/home/sankalp/edx-ficus.3-1/apps/edx/venvs/edxapp/lib/python2.7/site-packages/celery/worker/consumer.py", line 821, in start
    c.loop(*c.loop_args())
  File "/home/sankalp/edx-ficus.3-1/apps/edx/venvs/edxapp/lib/python2.7/site-packages/celery/worker/loops.py", line 70, in asynloop
    next(loop)
  File "/home/sankalp/edx-ficus.3-1/apps/edx/venvs/edxapp/lib/python2.7/site-packages/kombu/async/hub.py", line 340, in create_loop
    cb(*cbargs)
  File "/home/sankalp/edx-ficus.3-1/apps/edx/venvs/edxapp/lib/python2.7/site-packages/kombu/transport/base.py", line 164, in on_readable
    reader(loop)
  File "/home/sankalp/edx-ficus.3-1/apps/edx/venvs/edxapp/lib/python2.7/site-packages/kombu/transport/base.py", line 146, in _read
    drain_events(timeout=0)
  File "/home/sankalp/edx-ficus.3-1/apps/edx/venvs/edxapp/lib/python2.7/site-packages/amqp/connection.py", line 324, in drain_events
    return amqp_method(channel, args)
  File "/home/sankalp/edx-ficus.3-1/apps/edx/venvs/edxapp/lib/python2.7/site-packages/amqp/connection.py", line 527, in _close
    self._x_close_ok()
  File "/home/sankalp/edx-ficus.3-1/apps/edx/venvs/edxapp/lib/python2.7/site-packages/amqp/connection.py", line 555, in _x_close_ok
    self._send_method((10, 51))
  File "/home/sankalp/edx-ficus.3-1/apps/edx/venvs/edxapp/lib/python2.7/site-packages/amqp/abstract_channel.py", line 56, in _send_method
    self.channel_id, method_sig, args, content,
  File "/home/sankalp/edx-ficus.3-1/apps/edx/venvs/edxapp/lib/python2.7/site-packages/amqp/method_framing.py", line 221, in write_method
    write_frame(1, channel, payload)
  File "/home/sankalp/edx-ficus.3-1/apps/edx/venvs/edxapp/lib/python2.7/site-packages/amqp/transport.py", line 182, in write_frame
    frame_type, channel, size, payload, 0xce,
  File "/home/sankalp/edx-ficus.3-1/python/lib/python2.7/socket.py", line 228, in meth
    return getattr(self._sock,name)(*args)
error: [Errno 104] Connection reset by peer
2017-06-27 05:35:38,091 ERROR 9763 [celery.worker.consumer] consumer.py:364 - consumer: Cannot connect to amqp://bn_edx:**@127.0.0.1:5672//: [Errno 111] Connection refused.
Trying again in 2.00 seconds...

2017-06-27 05:35:40,209 ERROR 9763 [celery.worker.consumer] consumer.py:364 - consumer: Cannot connect to amqp://bn_edx:**@127.0.0.1:5672//: [Errno 111] Connection refused.
Trying again in 4.00 seconds...

2017-06-27 05:35:44,351 ERROR 9763 [celery.worker.consumer] consumer.py:364 - consumer: Cannot connect to amqp://bn_edx:**@127.0.0.1:5672//: [Errno 111] Connection refused.
Trying again in 6.00 seconds...

2017-06-27 05:35:50,535 ERROR 9763 [celery.worker.consumer] consumer.py:364 - consumer: Cannot connect to amqp://bn_edx:**@127.0.0.1:5672//: [Errno 111] Connection refused.
Trying again in 8.00 seconds...

2017-06-27 05:35:58,655 ERROR 9763 [celery.worker.consumer] consumer.py:364 - consumer: Cannot connect to amqp://bn_edx:**@127.0.0.1:5672//: [Errno 111] Connection refused.
Trying again in 10.00 seconds...

2017-06-27 05:36:08,778 ERROR 9763 [celery.worker.consumer] consumer.py:364 - consumer: Cannot connect to amqp://bn_edx:**@127.0.0.1:5672//: [Errno 111] Connection refused.
Trying again in 12.00 seconds...

2017-06-27 05:36:20,970 ERROR 9763 [celery.worker.consumer] consumer.py:364 - consumer: Cannot connect to amqp://bn_edx:**@127.0.0.1:5672//: [Errno 111] Connection refused.
Trying again in 14.00 seconds...

2017-06-27 05:36:35,179 ERROR 9763 [celery.worker.consumer] consumer.py:364 - consumer: Cannot connect to amqp://bn_edx:**@127.0.0.1:5672//: [Errno 111] Connection refused.
Trying again in 16.00 seconds...

2017-06-27 05:36:51,340 ERROR 9763 [celery.worker.consumer] consumer.py:364 - consumer: Cannot connect to amqp://bn_edx:**@127.0.0.1:5672//: [Errno 111] Connection refused.
Trying again in 18.00 seconds...

2017-06-27 05:37:09,486 ERROR 9763 [celery.worker.consumer] consumer.py:364 - consumer: Cannot connect to amqp://bn_edx:**@127.0.0.1:5672//: [Errno 111] Connection refused.
Trying again in 20.00 seconds...

2017-06-27 05:37:29,662 INFO 9763 [celery.worker.consumer] consumer.py:479 - Connected to amqp://bn_edx:**@127.0.0.1:5672//
2017-06-27 05:37:29,864 INFO 9763 [celery.worker.consumer] consumer.py:567 - mingle: searching for neighbors
2017-06-27 05:37:31,088 INFO 9763 [celery.worker.consumer] consumer.py:573 - mingle: sync with 4 nodes
2017-06-27 05:37:31,105 INFO 9763 [celery.worker.consumer] consumer.py:583 - mingle: sync complete
