2017-06-27 05:34:17,761 ERROR 9747 [celery.worker.consumer] consumer.py:364 - consumer: Cannot connect to amqp://bn_edx:**@127.0.0.1:5672//: [Errno 111] Connection refused.
Trying again in 26.00 seconds...

2017-06-27 05:34:43,911 ERROR 9747 [celery.worker.consumer] consumer.py:364 - consumer: Cannot connect to amqp://bn_edx:**@127.0.0.1:5672//: [Errno 111] Connection refused.
Trying again in 28.00 seconds...

2017-06-27 05:35:12,076 ERROR 9747 [celery.worker.consumer] consumer.py:364 - consumer: Cannot connect to amqp://bn_edx:**@127.0.0.1:5672//: [Errno 111] Connection refused.
Trying again in 30.00 seconds...

2017-06-27 05:35:42,229 ERROR 9747 [celery.worker.consumer] consumer.py:364 - consumer: Cannot connect to amqp://bn_edx:**@127.0.0.1:5672//: [Errno 111] Connection refused.
Trying again in 32.00 seconds...

2017-06-27 05:36:14,374 ERROR 9747 [celery.worker.consumer] consumer.py:364 - consumer: Cannot connect to amqp://bn_edx:**@127.0.0.1:5672//: [Errno 111] Connection refused.
Trying again in 32.00 seconds...

2017-06-27 05:36:46,544 ERROR 9747 [celery.worker.consumer] consumer.py:364 - consumer: Cannot connect to amqp://bn_edx:**@127.0.0.1:5672//: [Errno 111] Connection refused.
Trying again in 32.00 seconds...

2017-06-27 05:37:18,727 INFO 9747 [celery.worker.consumer] consumer.py:479 - Connected to amqp://bn_edx:**@127.0.0.1:5672//
2017-06-27 05:37:18,952 INFO 9747 [celery.worker.consumer] consumer.py:567 - mingle: searching for neighbors
2017-06-27 05:37:21,154 INFO 9747 [celery.worker.consumer] consumer.py:585 - mingle: all alone
2017-06-27 05:37:21,413 WARNING 9747 [celery.redirected] log.py:282 - celery@edx.cms.core.low.sankalp-ThinkPad-W510 ready.
2017-06-27 05:37:23,001 INFO 9747 [celery.worker.control] control.py:270 - sync with celery@edx.lms.core.high_mem.sankalp-ThinkPad-W510
2017-06-27 05:37:23,309 INFO 9747 [celery.worker.control] control.py:270 - sync with celery@edx.lms.core.high.sankalp-ThinkPad-W510
2017-06-27 05:37:25,792 INFO 9747 [celery.worker.control] control.py:270 - sync with celery@edx.cms.core.high.sankalp-ThinkPad-W510
2017-06-27 05:37:29,982 INFO 9747 [celery.worker.control] control.py:270 - sync with celery@edx.cms.core.default.sankalp-ThinkPad-W510
2017-06-27 05:37:30,029 INFO 9747 [celery.worker.control] control.py:270 - sync with celery@edx.lms.core.low.sankalp-ThinkPad-W510
2017-06-27 05:37:30,145 INFO 9747 [celery.worker.control] control.py:270 - sync with celery@edx.lms.core.default.sankalp-ThinkPad-W510
