2017-06-27 05:34:22,076 ERROR 9715 [celery.worker.consumer] consumer.py:364 - consumer: Cannot connect to amqp://bn_edx:**@127.0.0.1:5672//: [Errno 111] Connection refused.
Trying again in 26.00 seconds...

2017-06-27 05:34:48,227 ERROR 9715 [celery.worker.consumer] consumer.py:364 - consumer: Cannot connect to amqp://bn_edx:**@127.0.0.1:5672//: [Errno 111] Connection refused.
Trying again in 28.00 seconds...

2017-06-27 05:35:16,375 ERROR 9715 [celery.worker.consumer] consumer.py:364 - consumer: Cannot connect to amqp://bn_edx:**@127.0.0.1:5672//: [Errno 111] Connection refused.
Trying again in 30.00 seconds...

2017-06-27 05:35:46,539 ERROR 9715 [celery.worker.consumer] consumer.py:364 - consumer: Cannot connect to amqp://bn_edx:**@127.0.0.1:5672//: [Errno 111] Connection refused.
Trying again in 32.00 seconds...

2017-06-27 05:36:18,690 ERROR 9715 [celery.worker.consumer] consumer.py:364 - consumer: Cannot connect to amqp://bn_edx:**@127.0.0.1:5672//: [Errno 111] Connection refused.
Trying again in 32.00 seconds...

2017-06-27 05:36:50,842 ERROR 9715 [celery.worker.consumer] consumer.py:364 - consumer: Cannot connect to amqp://bn_edx:**@127.0.0.1:5672//: [Errno 111] Connection refused.
Trying again in 32.00 seconds...

2017-06-27 05:37:23,024 INFO 9715 [celery.worker.consumer] consumer.py:479 - Connected to amqp://bn_edx:**@127.0.0.1:5672//
2017-06-27 05:37:23,213 INFO 9715 [celery.worker.consumer] consumer.py:567 - mingle: searching for neighbors
2017-06-27 05:37:24,367 INFO 9715 [celery.worker.consumer] consumer.py:573 - mingle: sync with 1 nodes
2017-06-27 05:37:24,378 INFO 9715 [celery.worker.consumer] consumer.py:583 - mingle: sync complete
2017-06-27 05:37:24,618 WARNING 9715 [celery.redirected] log.py:282 - celery@edx.lms.core.high.sankalp-ThinkPad-W510 ready.
2017-06-27 05:37:25,791 INFO 9715 [celery.worker.control] control.py:270 - sync with celery@edx.cms.core.high.sankalp-ThinkPad-W510
2017-06-27 05:37:29,984 INFO 9715 [celery.worker.control] control.py:270 - sync with celery@edx.cms.core.default.sankalp-ThinkPad-W510
2017-06-27 05:37:30,009 INFO 9715 [celery.worker.control] control.py:270 - sync with celery@edx.lms.core.low.sankalp-ThinkPad-W510
2017-06-27 05:37:30,145 INFO 9715 [celery.worker.control] control.py:270 - sync with celery@edx.lms.core.default.sankalp-ThinkPad-W510
