/bitnami/megastack-linux-x64/output/ruby/bin/ruby extconf.rb
checking for rb_ary_subseq()... yes
creating Makefile

make "DESTDIR=" clean

make "DESTDIR="
compiling cparse.c
linking shared-object racc/cparse.so

make "DESTDIR=" install
/bin/install -c -m 0755 cparse.so ./.gem.20170516-118717-105nrah/racc
installing default cparse libraries
