{
    "LOCAL_LOGLEVEL": "INFO",
    "LOGGING_ENV": "sandbox",
    "SYSLOG_SERVER": "127.0.0.1",
    "LOG_DIR": "/home/sankalp/edx-ficus.3-1/apps/xqueue/var/log",
    "RABBIT_HOST": "127.0.0.1",
    "UPLOAD_BUCKET": "sandbox-bucket",
    "UPLOAD_PATH_PREFIX": "sandbox-xqueue",
    "XQUEUES": {
        "certificates": null,
        "edX-Open_DemoX": "http://127.0.0.1:18050",
        "open-ended": null,
        "open-ended-message": null,
        "test-pull": null
    },
    "XQUEUE_WORKERS_PER_QUEUE": 12
}
