/bitnami/megastack-linux-x64/output/ruby/bin/ruby extconf.rb
creating Makefile

make "DESTDIR=" clean

make "DESTDIR="
compiling ryah_http_parser.c
compiling ruby_http_parser.c
linking shared-object ruby_http_parser.so

make "DESTDIR=" install
/bin/install -c -m 0755 ruby_http_parser.so ./.gem.20170516-7898-4cjqhn
installing default ruby_http_parser libraries
